Yvesypher - Lecture 10: Narrative
…
Jones, Ben (2015) Seven Data Story Types. Tapestry Conference.

Data: key crop yields

# devtools::install_github("etc5523-2022/cwdata")
cwdata::key_crop_yields

# A tibble: 143,825 × 5
   entity      code   year crop     yield
   <chr>       <chr> <dbl> <chr>    <dbl>
 1 Afghanistan AFG    1961 wheat     1.02
 2 Afghanistan AFG    1961 rice      1.52
 3 Afghanistan AFG    1961 maize     1.4 
 4 Afghanistan AFG    1961 soybeans NA   
 5 Afghanistan AFG    1961 potatoes  8.67
 6 Afghanistan AFG    1961 beans    NA   
 7 Afghanistan AFG    1961 peas     NA   
 8 Afghanistan AFG    1961 cassava  NA   
 9 Afghanistan AFG    1961 barley    1.08
10 Afghanistan AFG    1961 cocoa    NA   
# ℹ 143,815 more rows
…
